(i__main__
LogFile
p0
(dp1
S'_installed_files'
p2
(dp3
S'../../../../../../../../../../../../cvmfs/atlas.cern.ch/repo/sw/software/x86_64-slc6-gcc49-opt/20.20.10/GAUDI/v26r2p3-lcg81f/GaudiPolicy/cmt/fragments/__init__.py'
p4
S'../../../../InstallArea/python/InDetTrackingGeometry/__init__.py'
p5
sS'../../../../../../../../../../cvmfs/atlas.cern.ch/repo/sw/software/x86_64-slc6-gcc49-opt/20.20.10/GAUDI/v26r2p3-lcg81f/GaudiPolicy/cmt/fragments/__init__.py'
p6
S'../../../../InstallArea/python/InDetTrackingGeometry/__init__.py'
p7
sS'../../../InnerDetector/InDetDetDescr/InDetTrackingGeometry/x86_64-slc6-gcc49-opt/libInDetTrackingGeometry.so.debug'
p8
S'../../../../InstallArea/x86_64-slc6-gcc49-opt/lib/libInDetTrackingGeometry.so.debug'
p9
sS'../../InnerDetector/InDetDetDescr/InDetTrackingGeometry/genConf/InDetTrackingGeometry'
p10
(dp11
S'../../../InnerDetector/InDetDetDescr/InDetTrackingGeometry/genConf/InDetTrackingGeometry/InDetTrackingGeometryConf.py'
p12
S'../../../../InstallArea/python/InDetTrackingGeometry/InDetTrackingGeometryConf.py'
p13
ssS'../../../InnerDetector/InDetDetDescr/InDetTrackingGeometry/x86_64-slc6-gcc49-opt/libInDetTrackingGeometry.so'
p14
S'../../../../InstallArea/x86_64-slc6-gcc49-opt/lib/libInDetTrackingGeometry.so'
p15
sS'../../../../../../../../../cvmfs/atlas.cern.ch/repo/sw/software/x86_64-slc6-gcc49-opt/20.20.10/GAUDI/v26r2p3-lcg81f/GaudiPolicy/cmt/fragments/__init__.py'
p16
S'../../../../InstallArea/python/InDetTrackingGeometry/__init__.py'
p17
ssb.